%YAML 1.1
%TAG !u! tag:unity3d.com,2011:
--- !u!74 &7400000
AnimationClip:
  m_ObjectHideFlags: 0
  m_CorrespondingSourceObject: {fileID: 0}
  m_PrefabInstance: {fileID: 0}
  m_PrefabAsset: {fileID: 0}
  m_Name: WizardSpellShoot
  serializedVersion: 6
  m_Legacy: 0
  m_Compressed: 0
  m_UseHighQualityCurve: 1
  m_RotationCurves: []
  m_CompressedRotationCurves: []
  m_EulerCurves: []
  m_PositionCurves: []
  m_ScaleCurves: []
  m_FloatCurves: []
  m_PPtrCurves:
  - curve:
    - time: 0
      value: {fileID: 6812097458955202623, guid: 47c3e6796e16dc448bdd1d96a472b0de,
        type: 3}
    - time: 0.0049261083
      value: {fileID: 195372286337231044, guid: 47c3e6796e16dc448bdd1d96a472b0de,
        type: 3}
    - time: 0.009852217
      value: {fileID: 2531514198635864752, guid: 47c3e6796e16dc448bdd1d96a472b0de,
        type: 3}
    - time: 0.014778325
      value: {fileID: 6874547609621125289, guid: 47c3e6796e16dc448bdd1d96a472b0de,
        type: 3}
    - time: 0.019704433
      value: {fileID: -5416843205818208994, guid: 47c3e6796e16dc448bdd1d96a472b0de,
        type: 3}
    - time: 0.024630541
      value: {fileID: -1142227814067925052, guid: 47c3e6796e16dc448bdd1d96a472b0de,
        type: 3}
    attribute: m_Sprite
    path: 
    classID: 212
    script: {fileID: 0}
  m_SampleRate: 203
  m_WrapMode: 0
  m_Bounds:
    m_Center: {x: 0, y: 0, z: 0}
    m_Extent: {x: 0, y: 0, z: 0}
  m_ClipBindingConstant:
    genericBindings:
    - serializedVersion: 2
      path: 0
      attribute: 0
      script: {fileID: 0}
      typeID: 212
      customType: 23
      isPPtrCurve: 1
    pptrCurveMapping:
    - {fileID: 6812097458955202623, guid: 47c3e6796e16dc448bdd1d96a472b0de, type: 3}
    - {fileID: 195372286337231044, guid: 47c3e6796e16dc448bdd1d96a472b0de, type: 3}
    - {fileID: 2531514198635864752, guid: 47c3e6796e16dc448bdd1d96a472b0de, type: 3}
    - {fileID: 6874547609621125289, guid: 47c3e6796e16dc448bdd1d96a472b0de, type: 3}
    - {fileID: -5416843205818208994, guid: 47c3e6796e16dc448bdd1d96a472b0de, type: 3}
    - {fileID: -1142227814067925052, guid: 47c3e6796e16dc448bdd1d96a472b0de, type: 3}
  m_AnimationClipSettings:
    serializedVersion: 2
    m_AdditiveReferencePoseClip: {fileID: 0}
    m_AdditiveReferencePoseTime: 0
    m_StartTime: 0
    m_StopTime: 0.029556649
    m_OrientationOffsetY: 0
    m_Level: 0
    m_CycleOffset: 0
    m_HasAdditiveReferencePose: 0
    m_LoopTime: 0
    m_LoopBlend: 0
    m_LoopBlendOrientation: 0
    m_LoopBlendPositionY: 0
    m_LoopBlendPositionXZ: 0
    m_KeepOriginalOrientation: 0
    m_KeepOriginalPositionY: 1
    m_KeepOriginalPositionXZ: 0
    m_HeightFromFeet: 0
    m_Mirror: 0
  m_EditorCurves: []
  m_EulerEditorCurves: []
  m_HasGenericRootTransform: 0
  m_HasMotionFloatCurves: 0
  m_Events: []
